<?xml version="1.0" encoding="UTF-8"?>
<svg width="138px" height="14px" viewBox="0 0 138 14" version="1.1" xmlns="http://www.w3.org/2000/svg" xmlns:xlink="http://www.w3.org/1999/xlink">
    <!-- Generator: sketchtool 51 (57462) - http://www.bohemiancoding.com/sketch -->
    <title>B559AB85-29BD-48C5-B96E-07F5E28771CF</title>
    <desc>Created with sketchtool.</desc>
    <defs></defs>
    <g id="-" stroke="none" stroke-width="1" fill="none" fill-rule="evenodd">
        <g id="Icons" transform="translate(-37.000000, -158.000000)">
            <rect x="0" y="0" width="760" height="1506"></rect>
            <g id="logo_dark-mod" transform="translate(37.000000, 158.000000)">
                <path d="M2.646,0.22 L6.102,9.886 L9.522,0.22 L12.132,0.22 L7.146,13 L5.058,13 L0.036,0.22 L2.646,0.22 Z M13.5,13 L13.5,0.22 L15.984,0.22 L15.984,13 L13.5,13 Z M18.648,13 L18.648,0.22 L23.292,0.22 C24.3360052,0.22 25.2509961,0.38799832 26.037,0.724 C26.8230039,1.06000168 27.4799974,1.51599712 28.008,2.092 C28.5360026,2.66800288 28.9319987,3.34299613 29.196,4.117 C29.4600013,4.89100387 29.592,5.71599562 29.592,6.592 C29.592,7.56400486 29.4450015,8.44299607 29.151,9.229 C28.8569985,10.0150039 28.4340028,10.6869972 27.882,11.245 C27.3299972,11.8030028 26.6670039,12.2349985 25.893,12.541 C25.1189961,12.8470015 24.2520048,13 23.292,13 L18.648,13 Z M27.09,6.592 C27.09,5.97999694 27.0060008,5.41600258 26.838,4.9 C26.6699992,4.38399742 26.4240016,3.94000186 26.1,3.568 C25.7759984,3.19599814 25.3770024,2.90800102 24.903,2.704 C24.4289976,2.49999898 23.892003,2.398 23.292,2.398 L21.132,2.398 L21.132,10.822 L23.292,10.822 C23.9040031,10.822 24.4469976,10.7140011 24.921,10.498 C25.3950024,10.2819989 25.7909984,9.98500189 26.109,9.607 C26.4270016,9.22899811 26.6699992,8.78200258 26.838,8.266 C27.0060008,7.74999742 27.09,7.192003 27.09,6.592 Z M40.41,10.822 L40.41,13 L31.536,13 L31.536,0.22 L40.248,0.22 L40.248,2.398 L34.02,2.398 L34.02,5.476 L39.402,5.476 L39.402,7.492 L34.02,7.492 L34.02,10.822 L40.41,10.822 Z M47.538,13.09 C46.6019953,13.09 45.7530038,12.9070018 44.991,12.541 C44.2289962,12.1749982 43.5750027,11.689003 43.029,11.083 C42.4829973,10.476997 42.0600015,9.7840039 41.76,9.004 C41.4599985,8.2239961 41.31,7.42600408 41.31,6.61 C41.31,5.75799574 41.4689984,4.9420039 41.787,4.162 C42.1050016,3.3819961 42.5429972,2.692003 43.101,2.092 C43.6590028,1.491997 44.3219962,1.01500177 45.09,0.661 C45.8580038,0.30699823 46.6919955,0.13 47.592,0.13 C48.5160046,0.13 49.3589962,0.31899811 50.121,0.697 C50.8830038,1.07500189 51.5339973,1.56999694 52.074,2.182 C52.6140027,2.79400306 53.0339985,3.4899961 53.334,4.27 C53.6340015,5.0500039 53.784,5.84199598 53.784,6.646 C53.784,7.49800426 53.6280016,8.31099613 53.316,9.085 C53.0039984,9.85900387 52.5720028,10.542997 52.02,11.137 C51.4679972,11.731003 50.8080038,12.2049982 50.04,12.559 C49.2719962,12.9130018 48.4380045,13.09 47.538,13.09 Z M43.83,6.61 C43.83,7.16200276 43.9139992,7.69599742 44.082,8.212 C44.2500008,8.72800258 44.4929984,9.18399802 44.811,9.58 C45.1290016,9.97600198 45.5189977,10.2939988 45.981,10.534 C46.4430023,10.7740012 46.9679971,10.894 47.556,10.894 C48.156003,10.894 48.6869977,10.7710012 49.149,10.525 C49.6110023,10.2789988 50.0009984,9.95200204 50.319,9.544 C50.6370016,9.13599796 50.8769992,8.67700255 51.039,8.167 C51.2010008,7.65699745 51.282,7.13800264 51.282,6.61 C51.282,6.05799724 51.1950009,5.52400258 51.021,5.008 C50.8469991,4.49199742 50.6010016,4.03600198 50.283,3.64 C49.9649984,3.24399802 49.5750023,2.92900117 49.113,2.695 C48.6509977,2.46099883 48.1320029,2.344 47.556,2.344 C46.955997,2.344 46.4220023,2.46699877 45.954,2.713 C45.4859977,2.95900123 45.0960016,3.28299799 44.784,3.685 C44.4719984,4.08700201 44.2350008,4.54299745 44.073,5.053 C43.9109992,5.56300255 43.83,6.08199736 43.83,6.61 Z" id="Video-Metrika" fill="#051552"></path>
                <path d="M70.434,13 L70.434,4.54 L67.14,10.84 L65.79,10.84 L62.496,4.54 L62.496,13 L60.012,13 L60.012,0.22 L62.676,0.22 L66.456,7.492 L70.272,0.22 L72.918,0.22 L72.918,13 L70.434,13 Z M84.456,10.822 L84.456,13 L75.582,13 L75.582,0.22 L84.294,0.22 L84.294,2.398 L78.066,2.398 L78.066,5.476 L83.448,5.476 L83.448,7.492 L78.066,7.492 L78.066,10.822 L84.456,10.822 Z M95.958,2.398 L91.872,2.398 L91.872,13 L89.406,13 L89.406,2.398 L85.32,2.398 L85.32,0.22 L95.958,0.22 L95.958,2.398 Z M97.542,13 L97.542,0.22 L103.194,0.22 C103.782003,0.22 104.324998,0.34299877 104.823,0.589 C105.321002,0.83500123 105.749998,1.15899799 106.11,1.561 C106.470002,1.96300201 106.751999,2.41899745 106.956,2.929 C107.160001,3.43900255 107.262,3.95199742 107.262,4.468 C107.262,5.29600414 107.055002,6.04899661 106.641,6.727 C106.226998,7.40500339 105.666004,7.8939985 104.958,8.194 L107.874,13 L105.084,13 L102.474,8.716 L100.026,8.716 L100.026,13 L97.542,13 Z M125.490855,12.9191618 L130.338,0.22 L132.534,0.22 L137.394,13 L134.838,13 L133.65,9.814 L129.186,9.814 L128.016,13 L125.55,13 L122.76,13 L118.782,7.474 L117.144,9.184 L117.144,13 L114.66,13 L114.66,0.238 L117.144,0.238 L117.144,6.304 L122.508,0.22 L125.244,0.22 L120.348,5.89 L125.490855,12.9191618 Z M100.026,6.538 L100.026,2.398 L103.032,2.398 C103.248001,2.398 103.460999,2.44899949 103.671,2.551 C103.881001,2.65300051 104.066999,2.79699907 104.229,2.983 C104.391001,3.16900093 104.52,3.38799874 104.616,3.64 C104.712,3.89200126 104.76,4.1679985 104.76,4.468 C104.76,4.75600144 104.718,5.02599874 104.634,5.278 C104.55,5.53000126 104.436001,5.74899907 104.292,5.935 C104.147999,6.12100093 103.977001,6.26799946 103.779,6.376 C103.580999,6.48400054 103.368001,6.538 103.14,6.538 L100.026,6.538 Z M109.512,13 L109.512,0.22 L111.996,0.22 L111.996,13 L109.512,13 Z M133.2,8.068 L131.436,3.046 L129.6,8.068 L133.2,8.068 Z" id="logo" fill="#FFFFFF"></path>
            </g>
        </g>
    </g>
</svg>